brand_name,model_name,colour_name,network_name,grade_name,condition_name
AASTRA,6865I,Black,Not Applicable,Grade B - Good Condition,Working
AASTRA,6865I,Black,Not Applicable,Grade A - Very Good Condition,Working
AASTRA,6865I,Black,Not Applicable,Grade B - Good Condition,Working
AASTRA,6865I,Black,Not Applicable,Grade B - Good Condition,Working
ABOOK,1720W,Black,Not Applicable,Grade B - Good Condition,Working
ACCESSORIZE,UNIVERSAL 10 INCH TABLET FOLIO CASE - BIRDS BLACK,Multicolour,Not Applicable,Brand New,Brand New
ACCESSORIZE,UNIVERSAL 10 INCH TABLET FOLIO CASE - BIRDS BLACK,Multicolour,Not Applicable,Brand New,Brand New
ACCESSORIZE,UNIVERSAL 10 INCH TABLET FOLIO CASE - BIRDS BLACK,Multicolour,Not Applicable,Brand New,Brand New
ACCESSORIZE,UNIVERSAL 10 INCH TABLET FOLIO CASE - BIRDS BLACK,Multicolour,Not Applicable,Brand New,Brand New
ACCESSORIZE,UNIVERSAL 10 INCH TABLET FOLIO CASE - BIRDS BLACK,Multicolour,Not Applicable,Brand New,Brand New
ACCESSORIZE,UNIVERSAL 10 INCH TABLET FOLIO CASE - BIRDS BLACK,Multicolour,Not Applicable,Brand New,Brand New
ACCESSORIZE,UNIVERSAL 10 INCH TABLET FOLIO CASE - BIRDS BLACK,Multicolour,Not Applicable,Brand New,Brand New
ACCESSORIZE,UNIVERSAL 10 INCH TABLET FOLIO CASE - BIRDS BLACK,Multicolour,Not Applicable,Brand New,Brand New
ACCESSORIZE,UNIVERSAL 10 INCH TABLET FOLIO CASE - BIRDS BLACK,Multicolour,Not Applicable,Brand New,Brand New
ACCESSORIZE,UNIVERSAL 10 INCH TABLET FOLIO CASE - BIRDS BLACK,Multicolour,Not Applicable,Brand New,Brand New
ACCESSORIZE,UNIVERSAL 10 INCH TABLET FOLIO CASE - BIRDS BLACK,Multicolour,Not Applicable,Brand New,Brand New
ACCESSORIZE,UNIVERSAL 10 INCH TABLET FOLIO CASE - BIRDS BLACK,Multicolour,Not Applicable,Brand New,Brand New
ACCESSORIZE,UNIVERSAL 10 INCH TABLET FOLIO CASE - BIRDS BLACK,Multicolour,Not Applicable,Brand New,Brand New
ACCESSORIZE,UNIVERSAL 10 INCH TABLET FOLIO CASE - BIRDS BLACK,Multicolour,Not Applicable,Brand New,Brand New
ACCESSORIZE,UNIVERSAL 10 INCH TABLET FOLIO CASE - BIRDS BLACK,Multicolour,Not Applicable,Brand New,Brand New
ACCESSORIZE,UNIVERSAL 10 INCH TABLET FOLIO CASE - BIRDS BLACK,Multicolour,Not Applicable,Brand New,Brand New
ACCESSORIZE,UNIVERSAL 10 INCH TABLET FOLIO CASE - BIRDS BLACK,Multicolour,Not Applicable,Brand New,Brand New
ACCESSORIZE,UNIVERSAL 10 INCH TABLET FOLIO CASE - BIRDS BLACK,Multicolour,Not Applicable,Brand New,Brand New
ACCESSORIZE,UNIVERSAL 10 INCH TABLET FOLIO CASE - BIRDS BLACK,Multicolour,Not Applicable,Brand New,Brand New
ACCESSORIZE,UNIVERSAL 10 INCH TABLET FOLIO CASE - BIRDS BLACK,Multicolour,Not Applicable,Brand New,Brand New
ACCESSORIZE,UNIVERSAL 10 INCH TABLET FOLIO CASE - BIRDS BLACK,Multicolour,Not Applicable,Brand New,Brand New
ACCESSORIZE,UNIVERSAL 10 INCH TABLET FOLIO CASE - BIRDS BLACK,Multicolour,Not Applicable,Brand New,Brand New
